…
## Loading and preprocessing the data

1. Load the data (i.e. read.csv()).


``` r
table <- read.csv("activity.csv")
as_tibble(table)
```

```
## # A tibble: 17,568 × 3
##    steps date       interval
##    <int> <chr>         <int>
##  1    NA 2012-10-01        0
##  2    NA 2012-10-01        5
##  3    NA 2012-10-01       10
##  4    NA 2012-10-01       15
##  5    NA 2012-10-01       20
##  6    NA 2012-10-01       25
##  7    NA 2012-10-01       30
##  8    NA 2012-10-01       35
##  9    NA 2012-10-01       40
## 10    NA 2012-10-01       45
## # ℹ 17,558 more rows
```
…
1. Calculate the total number of steps taken per day.


``` r
steps_per_day <- table %>%
        filter(!is.na(steps)) %>%
        group_by(date) %>%
        summarize(StepsPerDay = sum(steps)) %>%
        ungroup()
as_tibble(steps_per_day)
```

```
## # A tibble: 53 × 2
##    date       StepsPerDay
##    <chr>            <int>
##  1 2012-10-02         126
##  2 2012-10-03       11352
##  3 2012-10-04       12116
##  4 2012-10-05       13294
##  5 2012-10-06       15420
##  6 2012-10-07       11015
##  7 2012-10-09       12811
##  8 2012-10-10        9900
##  9 2012-10-11       10304
## 10 2012-10-12       17382
## # ℹ 43 more rows
```
…
``` r
imputed_data <- table %>%
        inner_join(mean_steps_per_interval, by = "interval") %>%
        mutate(steps = if_else(is.na(steps),
                               round(MeanStepsPerInterval,0),
                               steps)) %>%
        select(steps,
               date,
               interval)
as_tibble(imputed_data)
```

```
## # A tibble: 17,568 × 3
##    steps date       interval
##    <dbl> <chr>         <int>
##  1     2 2012-10-01        0
##  2     0 2012-10-01        5
##  3     0 2012-10-01       10
##  4     0 2012-10-01       15
##  5     0 2012-10-01       20
##  6     2 2012-10-01       25
##  7     1 2012-10-01       30
##  8     1 2012-10-01       35
##  9     0 2012-10-01       40
## 10     1 2012-10-01       45
## # ℹ 17,558 more rows
```
…
``` r
imputed_week_levels <- imputed_data %>%
        mutate(weekday = weekdays(as.Date(date, format = "%Y-%m-%d"))) %>%
        mutate(week_level = if_else(weekday %in% c("Saturday",
                                                   "Sunday"),
                                    "weekend",
                                    "weekday")) %>%
        mutate(week_level = as.factor(week_level))
as_tibble(imputed_week_levels)
```

```
## # A tibble: 17,568 × 5
##    steps date       interval weekday week_level
##    <dbl> <chr>         <int> <chr>   <fct>     
##  1     2 2012-10-01        0 Monday  weekday   
##  2     0 2012-10-01        5 Monday  weekday   
##  3     0 2012-10-01       10 Monday  weekday   
##  4     0 2012-10-01       15 Monday  weekday   
##  5     0 2012-10-01       20 Monday  weekday   
##  6     2 2012-10-01       25 Monday  weekday   
##  7     1 2012-10-01       30 Monday  weekday   
##  8     1 2012-10-01       35 Monday  weekday   
##  9     0 2012-10-01       40 Monday  weekday   
## 10     1 2012-10-01       45 Monday  weekday   
## # ℹ 17,558 more rows
```
…
